a5H
b5H
C5H
d5H
e5H
f5U
g0U
h5D
j5d
m0d
F
a5
F
a5
F
a6
F
a6
F
b5
F
b5
F
b6
F
b6
F
c5
F
c5
F
c6
F
c6
F
c7
F
c7
F
d5
F
d5
F
d6
F
d6
F
d7
F
d7
F
k5
F
l5
F
m6
F
n6
F
o7
F
p7
F
e5
F
e5
F
e6
F
e6
F
e7
F
e7
F
e7
F
f5
F
f5
F
f6
F
f6
F
f7
F
f7
F
f8
F
f8
F
g5
F
g5
F
g6
F
g6
F
g7
F
g7
F
g8
F
g8
F
h0
F
h0
F
h1
F
h1
F
h2
F
h2
F
h3
F
h3
F
i0
F
i0
F
i1
F
i1
F
i2
F
i2
F
i3
F
i3
F
i4
F
i4
F
i5
F
i5
F
j0
F
j0
F
j1
F
j1
F
j2
F
j2
F
j3
F
j3
F
j4
F
j4
F
j5
F
j5
F
S1
F
A6
F
J0
F
A6
F
D5
F
N9
F
Q7
F
D4
F
F4
F
S5
F
T4
F
E1
F
N5
F
J0
F
R3
F
F2
F
H7
F
F2
F
L7
F
S5
F
Q3
F
L2
F
M9
F
G8
F
G2
F
F9
F
C2
F
A8
F
E1
F
F7
F
T6
F
H9
F
D1
F
E8
F
J5
F
P7
F
G3
F
F8
F
H3
F
R7
F
T0
F
B7
F
R2
F
T9
F
M9
F
G5
F
A3
F
O0
F
T1
F
F6
F
P6
F
G0
F
K6
F
G4
F
M1
F
S1
F
L2
F
M5
F
F1
F
R6
F
B0
F
K8
F
H7
F
R5
F
R6
F
L2
F
G3
F
Q0
F
L8
F
P7
F
H2
F
L8
F
T1
F
A3
F
N9
F
S1
F
E6
F
O5
F
I0
F
S8
F
I1
F
M2
F
J7
F
R2
F
F5
F
I1
F
I4
F
N4
F
N5
F
C1
F
J7
F
R1
F
H5
F
C0
F
I7
F
T7
F
R1
F
G6
F
F7
F
B6
F
Q6
F
B9
F
E0
F
T7
F
I5
F
O7
F
C2
F
P2
F
B2
F
B5
F
O6
F
O8
F
C5
F
F2
F
J6
F
A3
F
F3
F
B1
F
G1
F
D8
F
B5
F
E7
F
T9
F
E9
F
P8
F
N8
F
C8
F
N8
F
O5
F
L1
F
R0
F
R5
F
T9
F
G7
F
G6
F
L9
F
K2
F
Q5
F
E1
F
E6
F
H5
F
A5
F
R3
F
A5
F
B2
F
H5
F
J8
F
S9
F
H0
F
O5
F
N4
F
J9
F
S9
F
R8
F
N9
F
P6
F
E1
F
P8
F
N8
F
B3
F
I0
F
E3
F
G4
F
B5
F
A6
F
O0
F
O3
F
D9
F
J4
F
Q2
F
H6
F
I5
F
O7
F
O1
F
F0
F
H8
F
G0
F
L4
F
P6
F
P7
F
O6
F
O4
F
C0
F
K1
F
E8
F
R7
F
F9
F
R1
F
G9
F
F4
F
O6
F
F8
F
L4
F
Q2
F
M9
F
L7
F
N5
F
B2
F
L8
F
F3
F
S3
F
M1
F
M1
F
A6
F
D4
F
T6
F
S3
F
E9
F
Q7
F
T1
F
K8
F
P7
F
C9
F
R0
F
T6
F
G6
F
T0
F
F2
F
O0
F
C7
F
O0
F
O3
F
E4
F
Q5
F
I2
F
L6
F
T3
F
B2
F
A6
F
A3
F
R4
F
L7
F
A1
F
P1
F
O1
F
O0
F
J3
F
M1
F
Q3
F
I3
F
T5
F
K4
F
C6
F
O2
F
H3
F
L1
F
K8
F
F4
F
E5
F
D1
F
N5
F
S6
F
S3
F
S0
F
H9
F
C9
F
K3
F
G3
F
A2
F
C2
F
Q8
F
K4
F
N0
F
M8
F
H1
F
R2
F
R1
F
A1
F
F8
F
I8
F
Q0
F
A8
F
Q8
F
Q6
F
L8
F
F0
F
O4
F
R0
F
C0
F
E3
F
J4
F
F1
F
N0
F
B6
F
A7
F
R9
F
D2
F
T7
F
J9
F
E3
F
S4
F
H3
F
J8
F
L9
F
N9
F
M1
F
H5
F
T0
F
N1
F
R5
F
R3
F
D3
F
B6
F
P8
F
F6
F
B8
F
S7
F
P1
F
G1
F
F2
F
T5
F
O6
F
I5
F
H9
F
C1
F
I0
F
D8
F
A9
F
F1
F
Q1
F
F6
F
R5
F
C7
F
O6
F
I0
F
L9
F
H9
F
M8
F
R5
F
I2
F
H0
F
C6
F
P7
F
N9
F
P7
F
S7
F
A8
F
G2
F
C8
F
Q9
F
L0
F
J9
F
S5
F
D3
F
B1
F
P5
F
Q7
F
K2
F
Q2
F
O2
F
E6
F
I5
F
D5
F
B5
F
S8
F
B4
F
T6
F
D4
F
P3
F
H2
F
Q4
F
I0
F
B6
F
O4
F
S3
F
O6
F
P9
F
L5
F
F4
F
C6
F
P8
F
F8
F
N8
F
N7
F
C4
F
P1
F
G9
F
T2
F
L2
F
A1
F
C2
F
H4
F
E8
F
T6
F
O7
F
A5
F
E4
F
H7
F
A3
F
O0
F
T9
F
R3
F
E1
F
H3
F
C5
F
I9
F
O5
F
P8
F
M8
F
I4
F
O9
F
J5
F
N9
F
M4
F
J8
F
H0
F
T6
F
D1
F
R9
F
S0
F
M5
F
Q8
F
A1
F
T3
F
N2
F
S7
F
K8
F
T0
F
T5
F
F3
F
L2
F
E5
F
F9
F
S1
F
F4
F
S2
F
L2
F
T0
F
E2
F
H3
F
C3
F
E7
F
N4
F
L8
F
B1
F
H2
F
K2
F
N0
F
N1
F
S7
F
N1
F
E5
F
K7
F
A5
F
R8
F
T3
F
Q2
F
L4
F
D6
F
B1
F
T6
F
N9
F
G9
F
O1
F
E4
F
S7
F
E0
F
I3
F
C2
F
I3
F
P7
F
K5
F
J0
F
E2
F
R5
F
J5
F
O3
F
K4
F
I0
F
O7
F
B5
F
I1
F
S6
F
N6
F
F9
F
L4
F
S4
F
O0
F
E4
F
M9
F
S8
F
K6
F
N5
F
J2
F
H1
F
O0
F
I7
F
O2
F
E5
F
B0
F
J4
F
J0
F
T4
F
R4
F
R5
F
S7
F
S2
F
G0
F
Q3
F
H3
F
L7
F
C7
F
F3
F
F7
F
R1
F
G0
F
K6
F
N8
F
J2
F
E7
F
R1
F
N1
F
B7
F
L6
F
Q2
F
A2
F
J4
F
C7
F
N2
F
F8
F
F7
F
N2
F
G8
F
R8
F
A1
F
T9
F
L7
F
M3
F
M3
F
K2
F
D6
F
M5
F
A1
F
K3
F
I2
F
S2
F
Q6
F
G3
F
E5
F
P3
F
J5
F
R2
F
T8
F
M9
F
L1
F
T4
F
I0
F
L5
F
A0
F
K8
F
M8
F
H3
F
D2
F
J7
F
R0
F
A8
F
D2
F
Q9
F
O1
F
B9
F
Q9
F
R4
F
I6
F
M2
F
G6
F
J2
F
H0
F
G3
F
G3
F
R3
F
G9
F
Q8
F
C5
F
K9
F
D9
F
D1
F
N4
F
G6
F
F0
F
M8
F
R8
F
Q0
F
Q7
F
J0
F
D0
F
Q7
F
E0
F
S6
F
K2
F
I8
F
C3
F
R7
F
B5
F
E4
F
C9
F
T8
F
R2
F
D4
F
D9
F
B9
F
E1
F
A0
F
P8
F
A6
F
Q4
F
O5
F
I8
F
R1
F
Q5
F
Q2
F
L8
F
R0
F
K7
F
K0
F
R7
F
S8
F
I5
F
S2
F
N9
F
Q7
F
I8
F
H6
F
I6
F
F4
F
P1
F
S6
F
J1
F
S5
F
F1
F
E8
F
J2
F
D8
F
L8
F
C8
F
E6
F
P6
F
I9
F
F7
F
G2
F
O4
F
J9
F
G8
F
L2
F
R7
F
F5
F
D4
F
E3
F
C1
F
G8
F
L8
F
P4
F
R1
F
K4
F
O2
F
T9
F
I7
F
T6
F
H1
F
S4
F
D1
F
L7
F
N2
F
E1
F
B8
F
E6
F
L5
F
T2
F
O5
F
N9
F
P5
F
K2
F
S3
F
D8
F
G9
F
I9
F
E9
F
B0
F
D2
F
L2
F
R5
F
R1
F
I1
F
T3
F
R4
F
R5
F
M2
F
P2
F
K0
F
L7
F
E8
F
T8
F
A1
F
G7
F
N6
F
J3
F
G0
F
S3
F
L8
F
T9
F
P6
F
H6
F
J0
F
C4
F
S4
F
D2
F
O4
F
T8
F
T3
F
P7
F
K4
F
A8
F
D8
F
C6
F
A4
F
L7
F
M1
F
S7
F
J7
F
M3
F
P5
F
B4
F
T9
F
K2
F
B7
F
G7
F
Q1
F
O5
F
S8
F
F9
F
G7
F
Q5
F
M0
F
L6
F
S2
F
E2
F
R9
F
T8
F
C3
F
C5
F
F6
F
G7
F
R5
F
S5
F
F2
F
E8
F
P3
F
B2
F
P5
F
M4
F
K2
F
G8
F
I2
F
B3
F
G6
F
O6
F
E0
F
P4
F
O6
F
J5
F
F3
F
S4
F
B6
F
L6
F
N9
F
D2
F
S3
F
P1
F
P7
F
N9
F
Q3
F
H8
F
O5
F
K7
F
T6
F
C5
F
O5
F
P4
F
F5
F
I8
F
J1
F
A4
F
K7
F
K2
F
M6
F
R4
F
Q0
F
A1
F
T8
F
C5
F
M7
F
F5
F
A2
F
Q9
F
P4
F
O9
F
I3
F
J3
F
J5
F
A6
F
F6
F
I1
F
S3
F
R4
F
S9
F
P8
F
A5
F
D6
F
P4
F
E2
F
L1
F
B7
F
G9
F
Q1
F
R8
F
T8
F
T0
F
D8
F
K0
F
S6
F
F3
F
S6
F
I6
F
O8
F
C5
F
T3
F
E8
F
T6
F
L5
F
I5
F
A4
F
B7
F
F9
F
F0
F
P3
F
M2
F
S7
F
J5
F
R9
F
N8
F
G1
F
F9
F
L9
F
S1
F
D7
F
O1
F
P4
F
F4
F
F2
F
O0
F
K0
F
O1
F
O7
F
D3
F
Q2
F
F4
F
L8
F
L4
F
R8
F
S0
F
N5
F
N0
F
C2
F
Q6
F
J5
F
K6
F
H9
F
B8
F
J2
F
B5
F
A7
F
Q6
F
N4
F
A1
F
A9
F
R6
F
G7
F
B7
F
B4
F
F5
F
P7
F
C8
F
G0
F
I6
F
L4
F
F7
F
M4
F
B3
F
H3
F
J2
F
M6
F
F4
F
K8
F
O1
F
H2
F
M0
F
J9
F
J9
F
D1
F
T0
F
T6
F
G8
F
T1
F
I4
F
H0
F
I8
F
D2
F
J5
F
J4
F
N5
F
B6
F
O4
F
H3
F
H3
F
N1
F
G4
F
S2
F
R6
F
K0
F
S3
F
L3
F
H8
F
H3
F
K4
F
H9
F
N1
F
T2
F
G8
F
P6
F
J1
F
O8
F
C5
F
M3
F
E1
F
R1
F
S0
F
E4
F
G3
F
F8
F
L8
F
D1
F
P4
F
B4
F
E9
F
D0
F
G4
F
M3
F
C9
F
F4
F
K4
F
M2
F
M8
F
C1
F
P2
F
J6
F
I4
F
D6
F
C2
F
D2
F
E2
F
R1
F
S2
F
E9
F
K4
F
J8
F
M6
F
T4
F
B9
F
B0
F
A9
F
D8
F
B5
F
N4
F
C4
F
J1
F
T4
F
L2
F
O5

